Data/SM-Exp2/voltageData-Varying-Ip_trialA_0.5A.csv

Record Length,Analog:14000
Sample Interval,CH:0.0000099999997
Vertical Units,CH1:V CH2:V,,,
Vertical Scale,CH1:+2.000000E-01 CH2:+1.000000E-01,,,
Vertical Offset,CH1:+1.600000E-02 CH2:-3.220000E-01,,,
Horizontal Units,us,,,
Horizontal Scale,10000.0000000000,,,
Model Number,SDS2352X-E,,,
Serial Number,SDS2ECCX5R0320,,,
Software Version,2.1.1.1.20 R3,,,
Source,CH1,CH2
Second,Volt,Volt
-8.180000E-02,-8.000000E-03,+1.999974E-03
-8.179000E-02,-8.000000E-03,+1.999974E-03
-8.178000E-02,-8.000000E-03,+1.999974E-03
-8.177000E-02,-8.000000E-03,+1.999974E-03
-8.176000E-02,-8.000000E-03,+1.999974E-03
-8.175000E-02,-8.000000E-03,+1.999974E-03
-8.174000E-02,-8.000000E-03,+1.999974E-03
-8.173000E-02,-8.000000E-03,+1.999974E-03
-8.172000E-02,-8.000000E-03,+1.999974E-03
-8.171000E-02,+0.000000E+00,+1.999974E-03
-8.170000E-02,+0.000000E+00,+1.999974E-03
-8.169000E-02,+0.000000E+00,+1.999974E-03
-8.168000E-02,+0.000000E+00,+5.999982E-03
-8.167000E-02,+0.000000E+00,+5.999982E-03
-8.166000E-02,+0.000000E+00,+1.999974E-03
-8.165000E-02,+0.000000E+00,+1.999974E-03
-8.164000E-02,+0.000000E+00,+1.999974E-03
-8.163000E-02,+7.999999E-03,+1.999974E-03
-8.162000E-02,+0.000000E+00,+1.999974E-03
-8.161000E-02,+0.000000E+00,+1.999974E-03
-8.160000E-02,+7.999999E-03,+1.999974E-03
-8.159000E-02,+7.999999E-03,+5.999982E-03
-8.158000E-02,+7.999999E-03,+5.999982E-03
-8.157000E-02,+7.999999E-03,+5.999982E-03
-8.156000E-02,+0.000000E+00,+1.999974E-03
-8.155000E-02,+0.000000E+00,+1.999974E-03
-8.154000E-02,+7.999999E-03,+1.999974E-03
-8.153000E-02,+0.000000E+00,+1.999974E-03
-8.152000E-02,+7.999999E-03,+1.999974E-03
-8.151000E-02,+7.999999E-03,+1.999974E-03
-8.150000E-02,+0.000000E+00,+1.999974E-03
-8.149000E-02,+0.000000E+00,+1.999974E-03
-8.148000E-02,+0.000000E+00,+1.999974E-03
-8.147000E-02,+0.000000E+00,+1.999974E-03
-8.146000E-02,+0.000000E+00,+1.999974E-03
-8.145000E-02,+0.000000E+00,+1.999974E-03
-8.144000E-02,+0.000000E+00,+1.999974E-03
-8.143000E-02,+0.000000E+00,+1.999974E-03
-8.142000E-02,+0.000000E+00,+1.999974E-03
-8.141000E-02,+0.000000E+00,-2.000004E-03
-8.140000E-02,+0.000000E+00,-2.000004E-03
-8.139000E-02,-8.000000E-03,+1.999974E-03
-8.138000E-02,-8.000000E-03,+1.999974E-03
-8.137000E-02,-8.000000E-03,+1.999974E-03
-8.136000E-02,-8.000000E-03,+1.999974E-03
-8.135000E-02,-8.000000E-03,+1.999974E-03
-8.134000E-02,-8.000000E-03,+1.999974E-03
-8.133000E-02,-8.000000E-03,+1.999974E-03
-8.132000E-02,-8.000000E-03,+1.999974E-03
-8.131000E-02,-8.000000E-03,+1.999974E-03
-8.130000E-02,-8.000000E-03,+1.999974E-03
-8.129000E-02,-8.000000E-03,+1.999974E-03
-8.128000E-02,-8.000000E-03,+1.999974E-03
-8.127000E-02,-8.000000E-03,+1.999974E-03
-8.126000E-02,-8.000000E-03,+1.999974E-03
-8.125000E-02,+0.000000E+00,+1.999974E-03
-8.124000E-02,-8.000000E-03,+1.999974E-03
-8.123000E-02,-8.000000E-03,+1.999974E-03
-8.122000E-02,-8.000000E-03,+1.999974E-03
-8.121000E-02,-8.000000E-03,+1.999974E-03
-8.120000E-02,+0.000000E+00,+1.999974E-03
-8.119000E-02,+0.000000E+00,+1.999974E-03
-8.118000E-02,+0.000000E+00,+1.999974E-03
-8.117000E-02,+0.000000E+00,+1.999974E-03
-8.116000E-02,+0.000000E+00,-2.000004E-03
-8.115000E-02,+0.000000E+00,-2.000004E-03
-8.114000E-02,+0.000000E+00,+1.999974E-03
-8.113000E-02,+7.999999E-03,+1.999974E-03
-8.112000E-02,+7.999999E-03,+1.999974E-03
-8.111000E-02,+7.999999E-03,+1.999974E-03
-8.110000E-02,+0.000000E+00,+1.999974E-03
-8.109000E-02,+0.000000E+00,+1.999974E-03
-8.108000E-02,+7.999999E-03,+5.999982E-03
-8.107000E-02,+7.999999E-03,+5.999982E-03
-8.106000E-02,+7.999999E-03,+1.999974E-03
-8.105000E-02,+0.000000E+00,+1.999974E-03
-8.104000E-02,+0.000000E+00,+1.999974E-03
-8.103000E-02,+0.000000E+00,+1.999974E-03
-8.102000E-02,+0.000000E+00,+1.999974E-03
-8.101000E-02,+0.000000E+00,+1.999974E-03
-8.100000E-02,+0.000000E+00,+1.999974E-03
-8.099000E-02,+0.000000E+00,+1.999974E-03
-8.098000E-02,+0.000000E+00,+1.999974E-03
-8.097000E-02,+0.000000E+00,+1.999974E-03
-8.096000E-02,+0.000000E+00,+1.999974E-03
-8.095000E-02,-8.000000E-03,+1.999974E-03
-8.094000E-02,-8.000000E-03,+1.999974E-03
-8.093000E-02,-8.000000E-03,+1.999974E-03
-8.092000E-02,-8.000000E-03,+1.999974E-03
-8.091000E-02,-8.000000E-03,+5.999982E-03
-8.090000E-02,-8.000000E-03,+5.999982E-03
-8.089000E-02,-8.000000E-03,+1.999974E-03
-8.088000E-02,-8.000000E-03,+5.999982E-03
-8.087000E-02,-8.000000E-03,+5.999982E-03
-8.086000E-02,-8.000000E-03,+1.999974E-03
-8.085000E-02,-8.000000E-03,+1.999974E-03
-8.084000E-02,+0.000000E+00,+5.999982E-03
-8.083000E-02,+0.000000E+00,+1.999974E-03
-8.082000E-02,-8.000000E-03,+1.999974E-03
-8.081000E-02,+0.000000E+00,+1.999974E-03
-8.080000E-02,-8.000000E-03,+1.999974E-03
-8.079000E-02,-8.000000E-03,+1.999974E-03
-8.078000E-02,+0.000000E+00,+5.999982E-03
-8.077000E-02,+0.000000E+00,+5.999982E-03
-8.076000E-02,+0.000000E+00,+5.999982E-03
-8.075000E-02,+0.000000E+00,+1.999974E-03
-8.074000E-02,-8.000000E-03,+1.999974E-03
-8.073000E-02,-8.000000E-03,+1.999974E-03
-8.072000E-02,+0.000000E+00,+1.999974E-03
-8.071000E-02,+7.999999E-03,+1.999974E-03
-8.070000E-02,+7.999999E-03,+1.999974E-03
-8.069000E-02,+0.000000E+00,+1.999974E-03
-8.068000E-02,+0.000000E+00,+5.999982E-03
-8.067000E-02,+0.000000E+00,+5.999982E-03
-8.066000E-02,+0.000000E+00,+1.999974E-03
-8.065000E-02,+0.000000E+00,+1.999974E-03
-8.064000E-02,+0.000000E+00,+1.999974E-03
-8.063000E-02,+0.000000E+00,+1.999974E-03
-8.062000E-02,+0.000000E+00,+1.999974E-03
-8.061000E-02,+0.000000E+00,+1.999974E-03
-8.060000E-02,+7.999999E-03,+1.999974E-03
-8.059000E-02,+0.000000E+00,+1.999974E-03
-8.058000E-02,+0.000000E+00,+1.999974E-03
-8.057000E-02,+7.999999E-03,+1.999974E-03
-8.056000E-02,+7.999999E-03,+1.999974E-03
-8.055000E-02,+0.000000E+00,+1.999974E-03
-8.054000E-02,+0.000000E+00,+1.999974E-03
-8.053000E-02,+0.000000E+00,+1.999974E-03
-8.052000E-02,+0.000000E+00,+1.999974E-03
-8.051000E-02,+7.999999E-03,+1.999974E-03
-8.050000E-02,+7.999999E-03,+1.999974E-03
-8.049000E-02,+0.000000E+00,+1.999974E-03
-8.048000E-02,+0.000000E+00,+1.999974E-03
-8.047000E-02,+0.000000E+00,+1.999974E-03
-8.046000E-02,-8.000000E-03,+1.999974E-03
-8.045000E-02,-8.000000E-03,+1.999974E-03
-8.044000E-02,-8.000000E-03,+1.999974E-03
-8.043000E-02,-8.000000E-03,+5.999982E-03
-8.042000E-02,-8.000000E-03,+5.999982E-03
-8.041000E-02,-8.000000E-03,+1.999974E-03
-8.040000E-02,-8.000000E-03,-2.000004E-03
-8.039000E-02,-8.000000E-03,-2.000004E-03
-8.038000E-02,+0.000000E+00,+1.999974E-03
-8.037000E-02,-8.000000E-03,+1.999974E-03
-8.036000E-02,-8.000000E-03,+1.999974E-03
-8.035000E-02,-8.000000E-03,+1.999974E-03
-8.034000E-02,-8.000000E-03,+1.999974E-03
-8.033000E-02,-8.000000E-03,+1.999974E-03
-8.032000E-02,-8.000000E-03,+1.999974E-03
-8.031000E-02,-8.000000E-03,+1.999974E-03
-8.030000E-02,+0.000000E+00,+1.999974E-03
-8.029000E-02,+7.999999E-03,+1.999974E-03
-8.028000E-02,+0.000000E+00,+1.999974E-03
-8.027000E-02,-8.000000E-03,+1.999974E-03
-8.026000E-02,-8.000000E-03,+1.999974E-03
-8.025000E-02,-8.000000E-03,+1.999974E-03
-8.024000E-02,+0.000000E+00,+1.999974E-03
-8.023000E-02,+0.000000E+00,+1.999974E-03
-8.022000E-02,+0.000000E+00,+1.999974E-03
-8.021000E-02,+0.000000E+00,+1.999974E-03
-8.020000E-02,+0.000000E+00,+5.999982E-03
-8.019000E-02,+0.000000E+00,+1.999974E-03
-8.018000E-02,+0.000000E+00,+1.999974E-03
-8.017000E-02,+0.000000E+00,+1.999974E-03
-8.016000E-02,+0.000000E+00,+5.999982E-03
-8.015000E-02,+7.999999E-03,+1.999974E-03
-8.014000E-02,+7.999999E-03,+1.999974E-03
-8.013000E-02,+0.000000E+00,+1.999974E-03
-8.012000E-02,+0.000000E+00,+1.999974E-03
-8.011000E-02,+0.000000E+00,+1.999974E-03
-8.010000E-02,+0.000000E+00,+1.999974E-03
-8.009000E-02,+0.000000E+00,+1.999974E-03
-8.008000E-02,+0.000000E+00,+1.999974E-03
-8.007000E-02,+0.000000E+00,+1.999974E-03
-8.006000E-02,-8.000000E-03,+5.999982E-03
-8.005000E-02,-8.000000E-03,+1.999974E-03
-8.004000E-02,-1.600000E-02,+1.999974E-03
-8.003000E-02,-1.600000E-02,+1.999974E-03
-8.002000E-02,-1.600000E-02,+1.999974E-03
-8.001000E-02,-1.600000E-02,+1.999974E-03
-8.000000E-02,-3.200000E-02,+1.999974E-03
-7.999000E-02,-3.200000E-02,+1.999974E-03
-7.998000E-02,-3.200000E-02,+5.999982E-03
-7.997000E-02,-3.200000E-02,+5.999982E-03
-7.996000E-02,-3.200000E-02,+5.999982E-03
-7.995000E-02,-3.200000E-02,+1.999974E-03
-7.994000E-02,-3.200000E-02,+1.999974E-03
-7.993000E-02,-3.200000E-02,+1.999974E-03
-7.992000E-02,-3.200000E-02,+1.999974E-03
-7.991000E-02,-2.400000E-02,+1.999974E-03
-7.990000E-02,-2.400000E-02,+5.999982E-03
-7.989000E-02,-2.400000E-02,+1.999974E-03
-7.988000E-02,-2.400000E-02,+1.999974E-03
-7.987000E-02,-1.600000E-02,+1.999974E-03
-7.986000E-02,-8.000000E-03,+1.999974E-03
-7.985000E-02,+0.000000E+00,+1.999974E-03
-7.984000E-02,+0.000000E+00,+5.999982E-03
-7.983000E-02,+0.000000E+00,+5.999982E-03
-7.982000E-02,+7.999999E-03,+1.999974E-03
-7.981000E-02,+1.600000E-02,+1.999974E-03
-7.980000E-02,+1.600000E-02,+5.999982E-03
-7.979000E-02,+2.400000E-02,+5.999982E-03
-7.978000E-02,+3.200000E-02,+5.999982E-03
-7.977000E-02,+3.200000E-02,+5.999982E-03
-7.976000E-02,+3.200000E-02,+5.999982E-03
-7.975000E-02,+3.200000E-02,+5.999982E-03
-7.974000E-02,+3.200000E-02,+5.999982E-03
-7.973000E-02,+3.200000E-02,+5.999982E-03
-7.972000E-02,+4.000000E-02,+5.999982E-03
-7.971000E-02,+4.000000E-02,+5.999982E-03
-7.970000E-02,+3.200000E-02,+5.999982E-03
-7.969000E-02,+3.200000E-02,+5.999982E-03
-7.968000E-02,+3.200000E-02,+5.999982E-03
-7.967000E-02,+2.400000E-02,+1.999974E-03
-7.966000E-02,+2.400000E-02,+1.999974E-03
-7.965000E-02,+2.400000E-02,+5.999982E-03
-7.964000E-02,+2.400000E-02,+5.999982E-03
-7.963000E-02,+2.400000E-02,+5.999982E-03
-7.962000E-02,+1.600000E-02,+5.999982E-03
-7.961000E-02,+1.600000E-02,+5.999982E-03
-7.960000E-02,+7.999999E-03,+5.999982E-03
-7.959000E-02,+0.000000E+00,+5.999982E-03
-7.958000E-02,+0.000000E+00,+5.999982E-03
-7.957000E-02,-8.000000E-03,+5.999982E-03
-7.956000E-02,-8.000000E-03,+1.999974E-03
-7.955000E-02,-8.000000E-03,+1.999974E-03
-7.954000E-02,-1.600000E-02,+5.999982E-03
-7.953000E-02,-1.600000E-02,+5.999982E-03
-7.952000E-02,-1.600000E-02,+5.999982E-03
-7.951000E-02,-2.400000E-02,+5.999982E-03
-7.950000E-02,-2.400000E-02,+5.999982E-03
-7.949000E-02,-2.400000E-02,+5.999982E-03
-7.948000E-02,-2.400000E-02,+5.999982E-03
-7.947000E-02,-2.400000E-02,+5.999982E-03
-7.946000E-02,-2.400000E-02,+5.999982E-03
-7.945000E-02,-2.400000E-02,+5.999982E-03
-7.944000E-02,-2.400000E-02,+5.999982E-03
-7.943000E-02,-2.400000E-02,+5.999982E-03
-7.942000E-02,-1.600000E-02,+5.999982E-03
-7.941000E-02,-8.000000E-03,+5.999982E-03
-7.940000E-02,-8.000000E-03,+5.999982E-03
-7.939000E-02,-1.600000E-02,+5.999982E-03
-7.938000E-02,-1.600000E-02,+5.999982E-03
-7.937000E-02,-8.000000E-03,+9.999990E-03
-7.936000E-02,+0.000000E+00,+5.999982E-03
-7.935000E-02,+0.000000E+00,+5.999982E-03
-7.934000E-02,+7.999999E-03,+1.999974E-03
-7.933000E-02,+1.600000E-02,+1.999974E-03
-7.932000E-02,+1.600000E-02,+5.999982E-03
-7.931000E-02,+1.600000E-02,+5.999982E-03
-7.930000E-02,+2.400000E-02,+5.999982E-03
-7.929000E-02,+2.400000E-02,+5.999982E-03
-7.928000E-02,+2.400000E-02,+5.999982E-03
-7.927000E-02,+3.200000E-02,+5.999982E-03
-7.926000E-02,+4.000000E-02,+5.999982E-03
-7.925000E-02,+3.200000E-02,+5.999982E-03
-7.924000E-02,+4.000000E-02,+5.999982E-03
-7.923000E-02,+4.000000E-02,+5.999982E-03
-7.922000E-02,+3.200000E-02,+5.999982E-03
-7.921000E-02,+4.000000E-02,+5.999982E-03
-7.920000E-02,+3.200000E-02,+5.999982E-03
-7.919000E-02,+3.200000E-02,+9.999990E-03
-7.918000E-02,+3.200000E-02,+5.999982E-03
-7.917000E-02,+3.200000E-02,+5.999982E-03
-7.916000E-02,+2.400000E-02,+5.999982E-03
-7.915000E-02,+2.400000E-02,+9.999990E-03
-7.914000E-02,+1.600000E-02,+5.999982E-03
-7.913000E-02,+1.600000E-02,+5.999982E-03
-7.912000E-02,+7.999999E-03,+5.999982E-03
-7.911000E-02,+7.999999E-03,+5.999982E-03
-7.910000E-02,+7.999999E-03,+5.999982E-03
-7.909000E-02,+0.000000E+00,+5.999982E-03
-7.908000E-02,+0.000000E+00,+5.999982E-03
-7.907000E-02,+0.000000E+00,+5.999982E-03
-7.906000E-02,-8.000000E-03,+5.999982E-03
-7.905000E-02,-1.600000E-02,+5.999982E-03
-7.904000E-02,-2.400000E-02,+5.999982E-03
-7.903000E-02,-2.400000E-02,+5.999982E-03
-7.902000E-02,-2.400000E-02,+5.999982E-03
-7.901000E-02,-3.200000E-02,+5.999982E-03
-7.900000E-02,-3.200000E-02,+5.999982E-03
-7.899000E-02,-4.000000E-02,+5.999982E-03
-7.898000E-02,-4.000000E-02,+5.999982E-03
-7.897000E-02,-4.000000E-02,+5.999982E-03
-7.896000E-02,-4.000000E-02,+5.999982E-03
-7.895000E-02,-4.000000E-02,+5.999982E-03
-7.894000E-02,-4.000000E-02,+9.999990E-03
-7.893000E-02,-4.000000E-02,+1.399997E-02
-7.892000E-02,-4.000000E-02,+9.999990E-03
-7.891000E-02,-4.000000E-02,+5.999982E-03
-7.890000E-02,-3.200000E-02,+5.999982E-03
-7.889000E-02,-3.200000E-02,+5.999982E-03
-7.888000E-02,-2.400000E-02,+5.999982E-03
-7.887000E-02,-1.600000E-02,+5.999982E-03
-7.886000E-02,-1.600000E-02,+5.999982E-03
-7.885000E-02,-1.600000E-02,+9.999990E-03
-7.884000E-02,-8.000000E-03,+5.999982E-03
-7.883000E-02,+0.000000E+00,+5.999982E-03
-7.882000E-02,+0.000000E+00,+9.999990E-03
-7.881000E-02,+7.999999E-03,+5.999982E-03
-7.880000E-02,+7.999999E-03,+5.999982E-03
-7.879000E-02,+1.600000E-02,+5.999982E-03
-7.878000E-02,+1.600000E-02,+5.999982E-03
-7.877000E-02,+1.600000E-02,+5.999982E-03
-7.876000E-02,+2.400000E-02,+9.999990E-03
-7.875000E-02,+2.400000E-02,+5.999982E-03
-7.874000E-02,+2.400000E-02,+5.999982E-03
-7.873000E-02,+3.200000E-02,+5.999982E-03
-7.872000E-02,+3.200000E-02,+5.999982E-03
-7.871000E-02,+3.200000E-02,+9.999990E-03
-7.870000E-02,+3.200000E-02,+9.999990E-03
-7.869000E-02,+3.200000E-02,+9.999990E-03
-7.868000E-02,+3.200000E-02,+9.999990E-03
-7.867000E-02,+3.200000E-02,+9.999990E-03
-7.866000E-02,+3.200000E-02,+9.999990E-03
-7.865000E-02,+2.400000E-02,+9.999990E-03
-7.864000E-02,+2.400000E-02,+9.999990E-03
-7.863000E-02,+1.600000E-02,+9.999990E-03
-7.862000E-02,+1.600000E-02,+9.999990E-03
-7.861000E-02,+7.999999E-03,+5.999982E-03
-7.860000E-02,+7.999999E-03,+5.999982E-03
-7.859000E-02,+0.000000E+00,+5.999982E-03
-7.858000E-02,+0.000000E+00,+5.999982E-03
-7.857000E-02,+0.000000E+00,+9.999990E-03
-7.856000E-02,-8.000000E-03,+9.999990E-03
-7.855000E-02,-8.000000E-03,+9.999990E-03
-7.854000E-02,-1.600000E-02,+9.999990E-03
-7.853000E-02,-1.600000E-02,+9.999990E-03
-7.852000E-02,-1.600000E-02,+1.399997E-02
-7.851000E-02,-1.600000E-02,+9.999990E-03
-7.850000E-02,-2.400000E-02,+5.999982E-03
-7.849000E-02,-2.400000E-02,+5.999982E-03
-7.848000E-02,-3.200000E-02,+5.999982E-03
-7.847000E-02,-3.200000E-02,+5.999982E-03
-7.846000E-02,-3.200000E-02,+9.999990E-03
-7.845000E-02,-3.200000E-02,+9.999990E-03
-7.844000E-02,-3.200000E-02,+9.999990E-03
-7.843000E-02,-3.200000E-02,+9.999990E-03
-7.842000E-02,-3.200000E-02,+9.999990E-03
-7.841000E-02,-3.200000E-02,+9.999990E-03
-7.840000E-02,-3.200000E-02,+5.999982E-03
-7.839000E-02,-2.400000E-02,+5.999982E-03
-7.838000E-02,-2.400000E-02,+9.999990E-03
-7.837000E-02,-1.600000E-02,+5.999982E-03
-7.836000E-02,-1.600000E-02,+5.999982E-03
-7.835000E-02,-1.600000E-02,+9.999990E-03
-7.834000E-02,-8.000000E-03,+9.999990E-03
-7.833000E-02,-8.000000E-03,+9.999990E-03
-7.832000E-02,+0.000000E+00,+9.999990E-03
-7.831000E-02,+7.999999E-03,+9.999990E-03
-7.830000E-02,+7.999999E-03,+9.999990E-03
-7.829000E-02,+7.999999E-03,+9.999990E-03
-7.828000E-02,+1.600000E-02,+9.999990E-03
-7.827000E-02,+1.600000E-02,+9.999990E-03
-7.826000E-02,+2.400000E-02,+5.999982E-03
-7.825000E-02,+2.400000E-02,+5.999982E-03
-7.824000E-02,+2.400000E-02,+9.999990E-03
-7.823000E-02,+2.400000E-02,+1.399997E-02
-7.822000E-02,+3.200000E-02,+9.999990E-03
-7.821000E-02,+3.200000E-02,+9.999990E-03
-7.820000E-02,+3.200000E-02,+9.999990E-03
-7.819000E-02,+2.400000E-02,+9.999990E-03
-7.818000E-02,+1.600000E-02,+5.999982E-03
-7.817000E-02,+1.600000E-02,+5.999982E-03
-7.816000E-02,+1.600000E-02,+5.999982E-03
-7.815000E-02,+1.600000E-02,+5.999982E-03
-7.814000E-02,+7.999999E-03,+5.999982E-03
-7.813000E-02,+0.000000E+00,+5.999982E-03
-7.812000E-02,+0.000000E+00,+5.999982E-03
-7.811000E-02,-1.600000E-02,+9.999990E-03
-7.810000E-02,-2.400000E-02,+5.999982E-03
-7.809000E-02,-3.200000E-02,+5.999982E-03
-7.808000E-02,-4.000000E-02,+9.999990E-03
-7.807000E-02,-4.800000E-02,+9.999990E-03
-7.806000E-02,-5.600000E-02,+9.999990E-03
-7.805000E-02,-4.800000E-02,+9.999990E-03
-7.804000E-02,-5.600000E-02,+9.999990E-03
-7.803000E-02,-5.600000E-02,+9.999990E-03
-7.802000E-02,-5.600000E-02,+9.999990E-03
-7.801000E-02,-6.400000E-02,+9.999990E-03
-7.800000E-02,-6.400000E-02,+9.999990E-03
-7.799000E-02,-6.400000E-02,+9.999990E-03
-7.798000E-02,-5.600000E-02,+1.399997E-02
-7.797000E-02,-5.600000E-02,+9.999990E-03
-7.796000E-02,-4.800000E-02,+9.999990E-03
-7.795000E-02,-3.200000E-02,+9.999990E-03
-7.794000E-02,-3.200000E-02,+9.999990E-03
-7.793000E-02,-3.200000E-02,+9.999990E-03
-7.792000E-02,-1.600000E-02,+9.999990E-03
-7.791000E-02,-8.000000E-03,+9.999990E-03
-7.790000E-02,+7.999999E-03,+9.999990E-03
-7.789000E-02,+1.600000E-02,+9.999990E-03
-7.788000E-02,+3.200000E-02,+9.999990E-03
-7.787000E-02,+4.000000E-02,+5.999982E-03
-7.786000E-02,+4.800000E-02,+5.999982E-03
-7.785000E-02,+5.600000E-02,+9.999990E-03
-7.784000E-02,+7.200000E-02,+9.999990E-03
-7.783000E-02,+8.000000E-02,+9.999990E-03
-7.782000E-02,+8.800000E-02,+1.399997E-02
-7.781000E-02,+9.600000E-02,+1.399997E-02
-7.780000E-02,+9.600000E-02,+1.399997E-02
-7.779000E-02,+1.040000E-01,+9.999990E-03
-7.778000E-02,+1.040000E-01,+9.999990E-03
-7.777000E-02,+9.600000E-02,+1.399997E-02
-7.776000E-02,+1.040000E-01,+9.999990E-03
-7.775000E-02,+1.040000E-01,+9.999990E-03
-7.774000E-02,+8.800000E-02,+1.399997E-02
-7.773000E-02,+8.000000E-02,+1.399997E-02
-7.772000E-02,+7.200000E-02,+1.399997E-02
-7.771000E-02,+6.400000E-02,+1.399997E-02
-7.770000E-02,+5.600000E-02,+1.399997E-02
-7.769000E-02,+4.000000E-02,+1.399997E-02
-7.768000E-02,+2.400000E-02,+1.399997E-02
-7.767000E-02,+7.999999E-03,+1.399997E-02
-7.766000E-02,-8.000000E-03,+1.399997E-02
-7.765000E-02,-2.400000E-02,+1.399997E-02
-7.764000E-02,-4.000000E-02,+1.399997E-02
-7.763000E-02,-6.400000E-02,+1.399997E-02
-7.762000E-02,-8.000001E-02,+1.399997E-02
-7.761000E-02,-9.600001E-02,+1.399997E-02
-7.760000E-02,-1.120000E-01,+1.399997E-02
-7.759000E-02,-1.280000E-01,+1.399997E-02
-7.758000E-02,-1.360000E-01,+1.399997E-02
-7.757000E-02,-1.520000E-01,+1.799998E-02
-7.756000E-02,-1.520000E-01,+1.799998E-02
-7.755000E-02,-1.520000E-01,+1.399997E-02
-7.754000E-02,-1.600000E-01,+1.399997E-02
-7.753000E-02,-1.600000E-01,+1.799998E-02
-7.752000E-02,-1.600000E-01,+1.799998E-02
-7.751000E-02,-1.600000E-01,+1.799998E-02
-7.750000E-02,-1.520000E-01,+1.799998E-02
-7.749000E-02,-1.360000E-01,+1.799998E-02
-7.748000E-02,-1.200000E-01,+1.799998E-02
-7.747000E-02,-1.040000E-01,+1.799998E-02
-7.746000E-02,-8.800001E-02,+1.799998E-02
-7.745000E-02,-7.200000E-02,+1.799998E-02
-7.744000E-02,-4.800000E-02,+1.799998E-02
-7.743000E-02,-3.200000E-02,+1.799998E-02
-7.742000E-02,-1.600000E-02,+1.799998E-02
-7.741000E-02,+7.999999E-03,+1.799998E-02
-7.740000E-02,+3.200000E-02,+1.799998E-02
-7.739000E-02,+6.400000E-02,+2.199998E-02
-7.738000E-02,+8.800000E-02,+2.199998E-02
-7.737000E-02,+1.120000E-01,+1.799998E-02
-7.736000E-02,+1.200000E-01,+1.799998E-02
-7.735000E-02,+1.360000E-01,+1.799998E-02
-7.734000E-02,+1.520000E-01,+1.799998E-02
-7.733000E-02,+1.680000E-01,+1.799998E-02
-7.732000E-02,+1.840000E-01,+2.199998E-02
-7.731000E-02,+1.840000E-01,+2.199998E-02
-7.730000E-02,+1.920000E-01,+2.199998E-02
-7.729000E-02,+2.000000E-01,+2.199998E-02
-7.728000E-02,+2.000000E-01,+2.199998E-02
-7.727000E-02,+2.000000E-01,+2.199998E-02
-7.726000E-02,+1.920000E-01,+2.199998E-02
-7.725000E-02,+1.840000E-01,+2.199998E-02
-7.724000E-02,+1.680000E-01,+2.199998E-02
-7.723000E-02,+1.520000E-01,+2.199998E-02
-7.722000E-02,+1.360000E-01,+2.199998E-02
-7.721000E-02,+1.120000E-01,+2.199998E-02
-7.720000E-02,+8.800000E-02,+2.199998E-02
-7.719000E-02,+6.400000E-02,+2.199998E-02
-7.718000E-02,+4.000000E-02,+2.199998E-02
-7.717000E-02,+1.600000E-02,+2.599999E-02
-7.716000E-02,-8.000000E-03,+2.599999E-02
-7.715000E-02,-4.000000E-02,+2.199998E-02
-7.714000E-02,-7.200000E-02,+2.199998E-02
